…
(4) Prediction
==============

``` r
# predict
predict(penguins_model, penguins_test)
```

    ## # A tibble: 86 x 1
    ##    .pred_class
    ##    <fct>      
    ##  1 Adelie     
    ##  2 Adelie     
    ##  3 Adelie     
    ##  4 Adelie     
    ##  5 Adelie     
    ##  6 Adelie     
    ##  7 Adelie     
    ##  8 Adelie     
    ##  9 Adelie     
    ## 10 Chinstrap  
    ## # ... with 76 more rows
…
