…
``` r
# create a CV from transformed training set
sonar_cv <- sonar_split %>% 
  training() %>% 
  vfold_cv(5)

# define the tune grid
xgb_grid <- grid_max_entropy(
  trees(), min_n(), tree_depth(), learn_rate(), loss_reduction(),
  size=60
)
xgb_grid
```

    ## # A tibble: 60 x 5
    ##    trees min_n tree_depth learn_rate loss_reduction
    ##    <int> <int>      <int>      <dbl>          <dbl>
    ##  1   722     9          7   1.48e- 7 0.0316        
    ##  2   343    16          2   3.18e-10 0.000000000305
    ##  3   109     7          6   1.02e- 4 0.00000184    
    ##  4  1512    30          6   1.84e- 7 0.0398        
    ##  5   453    19          3   6.09e- 9 2.47          
    ##  6    39    39          1   2.09e- 3 7.97          
    ##  7  1954    38         12   1.23e-10 0.000518      
    ##  8  1133    25         15   9.28e- 7 5.96          
    ##  9  1879     5         13   1.00e- 2 0.0000103     
    ## 10   157    38         11   4.01e- 2 0.0000617     
    ## # ... with 50 more rows
…
6 Eval the hyperparameters performance
======================================

``` r
# what are the results
xgb_tune_res %>% 
  collect_metrics()
```

    ## # A tibble: 120 x 11
    ##    trees min_n tree_depth learn_rate loss_reduction .metric .estimator  mean
    ##    <int> <int>      <int>      <dbl>          <dbl> <chr>   <chr>      <dbl>
    ##  1  1727     3          3   1.35e- 6 0.0000130      accura~ binary     0.712
    ##  2  1727     3          3   1.35e- 6 0.0000130      roc_auc binary     0.788
    ##  3  1253     4          9   1.75e- 7 0.000000562    accura~ binary     0.744
    ##  4  1253     4          9   1.75e- 7 0.000000562    roc_auc binary     0.823
    ##  5  1971     5         12   4.65e-10 0.000000000731 accura~ binary     0.743
    ##  6  1971     5         12   4.65e-10 0.000000000731 roc_auc binary     0.831
    ##  7  1139     5         12   2.05e- 3 0.00000000800  accura~ binary     0.801
    ##  8  1139     5         12   2.05e- 3 0.00000000800  roc_auc binary     0.878
    ##  9  1879     5         13   1.00e- 2 0.0000103      accura~ binary     0.827
    ## 10  1879     5         13   1.00e- 2 0.0000103      roc_auc binary     0.902
    ## # ... with 110 more rows, and 3 more variables: n <int>, std_err <dbl>,
    ## #   .config <chr>
…
