…
The print method inside of the tibble shows the frequency of each:
`[2107/235]` indicates that about two thousand samples are in the
analysis set and `235` are in that particular assessment set.

To manually retrieve the partitioned data, the `analysis()` and
`assessment()` functions return the corresponding data frames:

    ames_fold$splits[[1]] |> 
      analysis()

    ## # A tibble: 2,107 × 74
    ##    MS_SubClass            MS_Zoning Lot_Frontage Lot_Area Street Alley Lot_Shape
    ##    <fct>                  <fct>            <dbl>    <int> <fct>  <fct> <fct>    
    ##  1 One_Story_1946_and_Ne… Resident…           70     8400 Pave   No_A… Regular  
    ##  2 One_Story_1946_and_Ne… Resident…           70    10500 Pave   No_A… Regular  
    ##  3 Two_Story_PUD_1946_an… Resident…           21     1680 Pave   No_A… Regular  
    ##  4 Two_Story_PUD_1946_an… Resident…           21     1680 Pave   No_A… Regular  
    ##  5 One_Story_PUD_1946_an… Resident…           53     4043 Pave   No_A… Regular  
    ##  6 One_Story_PUD_1946_an… Resident…           24     2280 Pave   No_A… Regular  
    ##  7 One_Story_PUD_1946_an… Resident…           55     7892 Pave   No_A… Regular  
    ##  8 One_Story_1945_and_Ol… Resident…           70     9800 Pave   No_A… Regular  
    ##  9 Duplex_All_Styles_and… Resident…           68     8930 Pave   No_A… Regular  
    ## 10 One_Story_1946_and_Ne… Resident…            0     6897 Pave   No_A… Slightly…
    ## # ℹ 2,097 more rows
    ## # ℹ 67 more variables: Land_Contour <fct>, Utilities <fct>, Lot_Config <fct>,
    ## #   Land_Slope <fct>, Neighborhood <fct>, Condition_1 <fct>, Condition_2 <fct>,
    ## #   Bldg_Type <fct>, House_Style <fct>, Overall_Cond <fct>, Year_Built <int>,
    ## #   Year_Remod_Add <int>, Roof_Style <fct>, Roof_Matl <fct>,
    ## #   Exterior_1st <fct>, Exterior_2nd <fct>, Mas_Vnr_Type <fct>,
    ## #   Mas_Vnr_Area <dbl>, Exter_Cond <fct>, Foundation <fct>, Bsmt_Cond <fct>, …
…
To create R repeats of V-fold cross-validation, the same fold generation
process is done R times to generate R collections of V partitions. Now,
instead of averaging V statistics, V × R statistics produce the final
resampling estimate.

To create repeats, invoke `vfold_cv()` with an additional argument
`repeats`:

    vfold_cv(ames_train, v=10, repeats = 5)

    ## #  10-fold cross-validation repeated 5 times 
    ## # A tibble: 50 × 3
    ##    splits             id      id2   
    ##    <list>             <chr>   <chr> 
    ##  1 <split [2107/235]> Repeat1 Fold01
    ##  2 <split [2107/235]> Repeat1 Fold02
    ##  3 <split [2108/234]> Repeat1 Fold03
    ##  4 <split [2108/234]> Repeat1 Fold04
    ##  5 <split [2108/234]> Repeat1 Fold05
    ##  6 <split [2108/234]> Repeat1 Fold06
    ##  7 <split [2108/234]> Repeat1 Fold07
    ##  8 <split [2108/234]> Repeat1 Fold08
    ##  9 <split [2108/234]> Repeat1 Fold09
    ## 10 <split [2108/234]> Repeat1 Fold10
    ## # ℹ 40 more rows
…
Saving the model in resample to extract the coefs

    # function to extract things from workflow during resamples
    get_model <- function(x) {
      extract_fit_parsnip(x) |> # extract the model from the workflow
        tidy() # get coefs
    }

    lm_fit |> class()

    ## [1] "workflow"

    get_model(lm_fit)

    ## # A tibble: 73 × 5
    ##    term                             estimate  std.error statistic   p.value
    ##    <chr>                               <dbl>      <dbl>     <dbl>     <dbl>
    ##  1 (Intercept)                      1.54     0.298         5.16   2.61e-  7
    ##  2 Gr_Liv_Area                      0.000163 0.00000446   36.4    2.81e-229
    ##  3 Year_Built                       0.00177  0.000140     12.6    1.93e- 35
    ##  4 Neighborhood_College_Creek       0.00125  0.0350        0.0357 9.72e-  1
    ##  5 Neighborhood_Old_Town           -0.0718   0.0129       -5.55   3.18e-  8
    ##  6 Neighborhood_Edwards            -0.0957   0.0293       -3.27   1.09e-  3
    ##  7 Neighborhood_Somerset            0.0944   0.0199        4.74   2.31e-  6
    ##  8 Neighborhood_Northridge_Heights  0.158    0.0363        4.36   1.37e-  5
    ##  9 Neighborhood_Gilbert             0.0285   0.0330        0.864  3.88e-  1
    ## 10 Neighborhood_Sawyer             -0.0967   0.0275       -3.52   4.36e-  4
    ## # ℹ 63 more rows
…
    lm_res[1,]$.extracts

    ## [[1]]
    ## # A tibble: 1 × 2
    ##   .extracts         .config             
    ##   <list>            <chr>               
    ## 1 <tibble [73 × 5]> Preprocessor1_Model1

    lm_res[1,]$.extracts[[1]]$.extracts[[1]]

    ## # A tibble: 73 × 5
    ##    term                             estimate  std.error statistic   p.value
    ##    <chr>                               <dbl>      <dbl>     <dbl>     <dbl>
    ##  1 (Intercept)                      1.48     0.320         4.62   4.11e-  6
    ##  2 Gr_Liv_Area                      0.000158 0.00000476   33.2    9.72e-194
    ##  3 Year_Built                       0.00180  0.000149     12.1    1.57e- 32
    ##  4 Neighborhood_College_Creek      -0.00163  0.0373       -0.0438 9.65e-  1
    ##  5 Neighborhood_Old_Town           -0.0757   0.0138       -5.47   4.92e-  8
    ##  6 Neighborhood_Edwards            -0.109    0.0310       -3.53   4.21e-  4
    ##  7 Neighborhood_Somerset            0.0832   0.0217        3.83   1.33e-  4
    ##  8 Neighborhood_Northridge_Heights  0.163    0.0401        4.06   5.19e-  5
    ##  9 Neighborhood_Gilbert             0.0304   0.0367        0.827  4.08e-  1
    ## 10 Neighborhood_Sawyer             -0.113    0.0291       -3.88   1.07e-  4
    ## # ℹ 63 more rows
…
