…
    # Take a random sample from the posterior distribution
    # so set the seed again to be reproducible. 
    rsq_anova |> 
      tidy(seed = 1103)

    ## # Posterior samples of performance
    ## # A tibble: 16,000 × 2
    ##    model       posterior
    ##    <chr>           <dbl>
    ##  1 rand_forest     0.832
    ##  2 basic_lm        0.792
    ##  3 interact_lm     0.796
    ##  4 splines_lm      0.804
    ##  5 rand_forest     0.833
    ##  6 basic_lm        0.791
    ##  7 interact_lm     0.796
    ##  8 splines_lm      0.802
    ##  9 rand_forest     0.838
    ## 10 basic_lm        0.795
    ## # ℹ 15,990 more rows
…
