…
There are a few convenience functions for examining results such as
grid\_results. The `rank_results()` function will order the models by
some performance metric. By default, it uses the first metric in the
metric set (RMSE in this instance). Let’s `filter()` to look only at
RMSE:

    grid_results |> 
      rank_results() |> 
      filter(.metric=="rmse") |> 
      select(model, .config, rmse=mean, rank)

    ## # A tibble: 252 × 4
    ##    model        .config                rmse  rank
    ##    <chr>        <chr>                 <dbl> <int>
    ##  1 boost_tree   Preprocessor1_Model04  4.25     1
    ##  2 boost_tree   Preprocessor1_Model06  4.29     2
    ##  3 boost_tree   Preprocessor1_Model13  4.31     3
    ##  4 boost_tree   Preprocessor1_Model14  4.39     4
    ##  5 boost_tree   Preprocessor1_Model16  4.46     5
    ##  6 boost_tree   Preprocessor1_Model03  4.47     6
    ##  7 boost_tree   Preprocessor1_Model15  4.48     7
    ##  8 boost_tree   Preprocessor1_Model05  4.55     8
    ##  9 boost_tree   Preprocessor1_Model20  4.71     9
    ## 10 cubist_rules Preprocessor1_Model24  4.71    10
    ## # ℹ 242 more rows
…
