…
    #  manually
    shap_duplex |> as_tibble()

    ## # A tibble: 126 × 7
    ##    variable          contribution variable_name variable_value  sign label     B
    ##    <chr>                    <dbl> <chr>         <chr>          <dbl> <chr> <dbl>
    ##  1 Bldg_Type = Dupl…     -0.0347  Bldg_Type     Duplex            -1 rand…     0
    ##  2 Gr_Liv_Area = 10…     -0.0758  Gr_Liv_Area   1040              -1 rand…     0
    ##  3 Latitude = 42.04      -0.0159  Latitude      42.04             -1 rand…     0
    ##  4 Longitude = -93.…     -0.0345  Longitude     -93.61            -1 rand…     0
    ##  5 Neighborhood = N…      0.00360 Neighborhood  North_Ames         1 rand…     0
    ##  6 Year_Built = 1949     -0.0939  Year_Built    1949              -1 rand…     0
    ##  7 Gr_Liv_Area = 10…     -0.0748  Gr_Liv_Area   1040              -1 rand…     1
    ##  8 Latitude = 42.04      -0.0134  Latitude      42.04             -1 rand…     1
    ##  9 Year_Built = 1949     -0.0893  Year_Built    1949              -1 rand…     1
    ## 10 Longitude = -93.…     -0.0418  Longitude     -93.61            -1 rand…     1
    ## # ℹ 116 more rows
…
