…
    lm_fit <- fit(lm_wflow, ames_train)

The `tidy()` can be colled again along with the `id` to get our results
for a applying `step_other()`:

    estimated_recipe <- 
      lm_fit |> 
      extract_recipe(estimated=T)

    tidy(estimated_recipe, id="my_id")

    ## # A tibble: 22 × 3
    ##    terms        retained           id   
    ##    <chr>        <chr>              <chr>
    ##  1 Neighborhood North_Ames         my_id
    ##  2 Neighborhood College_Creek      my_id
    ##  3 Neighborhood Old_Town           my_id
    ##  4 Neighborhood Edwards            my_id
    ##  5 Neighborhood Somerset           my_id
    ##  6 Neighborhood Northridge_Heights my_id
    ##  7 Neighborhood Gilbert            my_id
    ##  8 Neighborhood Sawyer             my_id
    ##  9 Neighborhood Northwest_Ames     my_id
    ## 10 Neighborhood Sawyer_West        my_id
    ## # ℹ 12 more rows

    tidy(estimated_recipe, id="dummy")

    ## # A tibble: 26 × 3
    ##    terms        columns            id   
    ##    <chr>        <chr>              <chr>
    ##  1 Neighborhood College_Creek      dummy
    ##  2 Neighborhood Old_Town           dummy
    ##  3 Neighborhood Edwards            dummy
    ##  4 Neighborhood Somerset           dummy
    ##  5 Neighborhood Northridge_Heights dummy
    ##  6 Neighborhood Gilbert            dummy
    ##  7 Neighborhood Sawyer             dummy
    ##  8 Neighborhood Northwest_Ames     dummy
    ##  9 Neighborhood Sawyer_West        dummy
    ## 10 Neighborhood Mitchell           dummy
    ## # ℹ 16 more rows
…
