…
    tidymodels_prefer()

    data("two_class_dat")

    dat_split <- initial_split(two_class_dat)
    training_set <- training(dat_split)
    testing_set  <- testing(dat_split)

    training_set

    ## # A tibble: 593 × 3
    ##        A     B Class 
    ##    <dbl> <dbl> <fct> 
    ##  1 1.90  1.75  Class1
    ##  2 1.97  2.40  Class2
    ##  3 1.40  1.16  Class1
    ##  4 1.71  0.954 Class1
    ##  5 3.31  2.41  Class2
    ##  6 0.722 0.545 Class1
    ##  7 2.88  1.97  Class2
    ##  8 1.69  1.99  Class2
    ##  9 2.07  1.65  Class1
    ## 10 2.53  1.77  Class1
    ## # ℹ 583 more rows
…
