…
    ## • Linear embedding for factors via GLM for: Neighborhood

    ## • Dummy variables from: all_nominal_predictors()

    ## • Interactions with: Gr_Liv_Area:starts_with("Bldg_Type_")

    ## • Natural splines on: Latitude and Longitude

    glm_estimates <- 
      prep(ames_glm) |> 
      tidy(number=2)

    glm_estimates

    ## # A tibble: 29 × 4
    ##    level              value terms        id               
    ##    <chr>              <dbl> <chr>        <chr>            
    ##  1 North_Ames          5.15 Neighborhood lencode_glm_yj20u
    ##  2 College_Creek       5.29 Neighborhood lencode_glm_yj20u
    ##  3 Old_Town            5.07 Neighborhood lencode_glm_yj20u
    ##  4 Edwards             5.09 Neighborhood lencode_glm_yj20u
    ##  5 Somerset            5.35 Neighborhood lencode_glm_yj20u
    ##  6 Northridge_Heights  5.49 Neighborhood lencode_glm_yj20u
    ##  7 Gilbert             5.28 Neighborhood lencode_glm_yj20u
    ##  8 Sawyer              5.13 Neighborhood lencode_glm_yj20u
    ##  9 Northwest_Ames      5.27 Neighborhood lencode_glm_yj20u
    ## 10 Sawyer_West         5.24 Neighborhood lencode_glm_yj20u
    ## # ℹ 19 more rows
…
    ## • Linear embedding for factors via mixed effects for: Neighborhood

    ## • Dummy variables from: all_nominal_predictors()

    ## • Interactions with: Gr_Liv_Area:starts_with("Bldg_Type_")

    ## • Natural splines on: Latitude and Longitude

    mixed_estimates <- 
      prep(ames_mixed) |> 
      tidy(number=2)

    mixed_estimates

    ## # A tibble: 29 × 4
    ##    level              value terms        id                 
    ##    <chr>              <dbl> <chr>        <chr>              
    ##  1 North_Ames          5.15 Neighborhood lencode_mixed_AmBz1
    ##  2 College_Creek       5.29 Neighborhood lencode_mixed_AmBz1
    ##  3 Old_Town            5.07 Neighborhood lencode_mixed_AmBz1
    ##  4 Edwards             5.10 Neighborhood lencode_mixed_AmBz1
    ##  5 Somerset            5.35 Neighborhood lencode_mixed_AmBz1
    ##  6 Northridge_Heights  5.49 Neighborhood lencode_mixed_AmBz1
    ##  7 Gilbert             5.28 Neighborhood lencode_mixed_AmBz1
    ##  8 Sawyer              5.13 Neighborhood lencode_mixed_AmBz1
    ##  9 Northwest_Ames      5.27 Neighborhood lencode_mixed_AmBz1
    ## 10 Sawyer_West         5.24 Neighborhood lencode_mixed_AmBz1
    ## # ℹ 19 more rows
…
    ## • Linear embedding for factors via Bayesian GLM for: Neighborhood

    ## • Dummy variables from: all_nominal_predictors()

    ## • Interactions with: Gr_Liv_Area:starts_with("Bldg_Type_")

    ## • Natural splines on: Latitude and Longitude

    bayes_estimates <- 
      prep(ames_mixed) |> 
      tidy(number=2)

    bayes_estimates

    ## # A tibble: 29 × 4
    ##    level              value terms        id                 
    ##    <chr>              <dbl> <chr>        <chr>              
    ##  1 North_Ames          5.15 Neighborhood lencode_mixed_AmBz1
    ##  2 College_Creek       5.29 Neighborhood lencode_mixed_AmBz1
    ##  3 Old_Town            5.07 Neighborhood lencode_mixed_AmBz1
    ##  4 Edwards             5.10 Neighborhood lencode_mixed_AmBz1
    ##  5 Somerset            5.35 Neighborhood lencode_mixed_AmBz1
    ##  6 Northridge_Heights  5.49 Neighborhood lencode_mixed_AmBz1
    ##  7 Gilbert             5.28 Neighborhood lencode_mixed_AmBz1
    ##  8 Sawyer              5.13 Neighborhood lencode_mixed_AmBz1
    ##  9 Northwest_Ames      5.27 Neighborhood lencode_mixed_AmBz1
    ## 10 Sawyer_West         5.24 Neighborhood lencode_mixed_AmBz1
    ## # ℹ 19 more rows
…
    ## The following objects are masked from 'package:purrr':
    ## 
    ##     %@%, flatten, flatten_chr, flatten_dbl, flatten_int, flatten_lgl,
    ##     flatten_raw, invoke, splice

    ames_hash <- 
      ames_train |> 
      mutate(Hash = map_chr(Neighborhood, hash))

    ames_hash |> 
      select(Neighborhood, Hash)

    ## # A tibble: 2,342 × 2
    ##    Neighborhood    Hash                            
    ##    <fct>           <chr>                           
    ##  1 North_Ames      076543f71313e522efe157944169d919
    ##  2 North_Ames      076543f71313e522efe157944169d919
    ##  3 Briardale       b598bec306983e3e68a3118952df8cf0
    ##  4 Briardale       b598bec306983e3e68a3118952df8cf0
    ##  5 Northpark_Villa 6af95b5db968bf393e78188a81e0e1e4
    ##  6 Northpark_Villa 6af95b5db968bf393e78188a81e0e1e4
    ##  7 Sawyer_West     5b8ac3fb32a9671d55da7b13c6e5ef49
    ##  8 Sawyer_West     5b8ac3fb32a9671d55da7b13c6e5ef49
    ##  9 Sawyer          2491e7eceb561d5a5f19abea49145c68
    ## 10 Sawyer          2491e7eceb561d5a5f19abea49145c68
    ## # ℹ 2,332 more rows
…
The `rlang::hash()` function generates a 128-bit hash, which means there
are 2^128 possible hash values. This is great for some applications but
doesn’t help with feature hashing of high cardinality variables
(variables with many levels). In feature hashing, the number of possible
hashes is a hyperparameter and is set by the model developer through
computing the modulo of the integer hashes. We can get sixteen possible
hash values by using `Hash %% 16`

    ames_hash |> 
      mutate( Hash = strtoi(substr(Hash, 26, 32), base=16L),
              Hash = Hash %% 16 ) |> 
      select(Neighborhood, Hash)

    ## # A tibble: 2,342 × 2
    ##    Neighborhood     Hash
    ##    <fct>           <dbl>
    ##  1 North_Ames          9
    ##  2 North_Ames          9
    ##  3 Briardale           0
    ##  4 Briardale           0
    ##  5 Northpark_Villa     4
    ##  6 Northpark_Villa     4
    ##  7 Sawyer_West         9
    ##  8 Sawyer_West         9
    ##  9 Sawyer              8
    ## 10 Sawyer              8
    ## # ℹ 2,332 more rows
…
